%!PS-Adobe-2.0 EPSF-2.0
%%Title: E:\Documents\MyPapers\LBM\resource\scheme\Diagram1.dia
%%Creator: Dia v0.97.2
%%CreationDate: Thu Jul 04 22:14:08 2013
%%For: CanisMajor
%%Orientation: Portrait
%%Magnification: 1.0000
%%BoundingBox: 0 0 759 430
%%BeginSetup
%%EndSetup
%%EndComments
%%BeginProlog
[ /.notdef /.notdef /.notdef /.notdef /.notdef /.notdef /.notdef /.notdef /.notdef /.notdef
/.notdef /.notdef /.notdef /.notdef /.notdef /.notdef /.notdef /.notdef /.notdef /.notdef
/.notdef /.notdef /.notdef /.notdef /.notdef /.notdef /.notdef /.notdef /.notdef /.notdef
/.notdef /.notdef /space /exclam /quotedbl /numbersign /dollar /percent /ampersand /quoteright
/parenleft /parenright /asterisk /plus /comma /hyphen /period /slash /zero /one
/two /three /four /five /six /seven /eight /nine /colon /semicolon
/less /equal /greater /question /at /A /B /C /D /E
/F /G /H /I /J /K /L /M /N /O
/P /Q /R /S /T /U /V /W /X /Y
/Z /bracketleft /backslash /bracketright /asciicircum /underscore /quoteleft /a /b /c
/d /e /f /g /h /i /j /k /l /m
/n /o /p /q /r /s /t /u /v /w
/x /y /z /braceleft /bar /braceright /asciitilde /.notdef /.notdef /.notdef
/.notdef /.notdef /.notdef /.notdef /.notdef /.notdef /.notdef /.notdef /.notdef /.notdef
/.notdef /.notdef /.notdef /.notdef /.notdef /.notdef /.notdef /.notdef /.notdef /.notdef
/.notdef /.notdef /.notdef /.notdef /.notdef /.notdef /.notdef /.notdef /.notdef /.notdef
/space /exclamdown /cent /sterling /currency /yen /brokenbar /section /dieresis /copyright
/ordfeminine /guillemotleft /logicalnot /hyphen /registered /macron /degree /plusminus /twosuperior /threesuperior
/acute /mu /paragraph /periodcentered /cedilla /onesuperior /ordmasculine /guillemotright /onequarter /onehalf
/threequarters /questiondown /Agrave /Aacute /Acircumflex /Atilde /Adieresis /Aring /AE /Ccedilla
/Egrave /Eacute /Ecircumflex /Edieresis /Igrave /Iacute /Icircumflex /Idieresis /Eth /Ntilde
/Ograve /Oacute /Ocircumflex /Otilde /Odieresis /multiply /Oslash /Ugrave /Uacute /Ucircumflex
/Udieresis /Yacute /Thorn /germandbls /agrave /aacute /acircumflex /atilde /adieresis /aring
/ae /ccedilla /egrave /eacute /ecircumflex /edieresis /igrave /iacute /icircumflex /idieresis
/eth /ntilde /ograve /oacute /ocircumflex /otilde /odieresis /divide /oslash /ugrave
/uacute /ucircumflex /udieresis /yacute /thorn /ydieresis] /isolatin1encoding exch def
/cp {closepath} bind def
/c {curveto} bind def
/f {fill} bind def
/a {arc} bind def
/ef {eofill} bind def
/ex {exch} bind def
/gr {grestore} bind def
/gs {gsave} bind def
/sa {save} bind def
/rs {restore} bind def
/l {lineto} bind def
/m {moveto} bind def
/rm {rmoveto} bind def
/n {newpath} bind def
/s {stroke} bind def
/sh {show} bind def
/slc {setlinecap} bind def
/slj {setlinejoin} bind def
/slw {setlinewidth} bind def
/srgb {setrgbcolor} bind def
/rot {rotate} bind def
/sc {scale} bind def
/sd {setdash} bind def
/ff {findfont} bind def
/sf {setfont} bind def
/scf {scalefont} bind def
/sw {stringwidth pop} bind def
/tr {translate} bind def

/ellipsedict 8 dict def
ellipsedict /mtrx matrix put
/ellipse
{ ellipsedict begin
   /endangle exch def
   /startangle exch def
   /yrad exch def
   /xrad exch def
   /y exch def
   /x exch def   /savematrix mtrx currentmatrix def
   x y tr xrad yrad sc
   0 0 1 startangle endangle arc
   savematrix setmatrix
   end
} def

/mergeprocs {
dup length
3 -1 roll
dup
length
dup
5 1 roll
3 -1 roll
add
array cvx
dup
3 -1 roll
0 exch
putinterval
dup
4 2 roll
putinterval
} bind def
/Times-Roman-latin1
    /Times-Roman findfont
    dup length dict begin
	{1 index /FID ne {def} {pop pop} ifelse} forall
	/Encoding isolatin1encoding def
    currentdict end
definefont pop
/Times-Italic-latin1
    /Times-Italic findfont
    dup length dict begin
	{1 index /FID ne {def} {pop pop} ifelse} forall
	/Encoding isolatin1encoding def
    currentdict end
definefont pop
/Times-Bold-latin1
    /Times-Bold findfont
    dup length dict begin
	{1 index /FID ne {def} {pop pop} ifelse} forall
	/Encoding isolatin1encoding def
    currentdict end
definefont pop
/Times-BoldItalic-latin1
    /Times-BoldItalic findfont
    dup length dict begin
	{1 index /FID ne {def} {pop pop} ifelse} forall
	/Encoding isolatin1encoding def
    currentdict end
definefont pop
/AvantGarde-Gothic-latin1
    /AvantGarde-Gothic findfont
    dup length dict begin
	{1 index /FID ne {def} {pop pop} ifelse} forall
	/Encoding isolatin1encoding def
    currentdict end
definefont pop
/AvantGarde-BookOblique-latin1
    /AvantGarde-BookOblique findfont
    dup length dict begin
	{1 index /FID ne {def} {pop pop} ifelse} forall
	/Encoding isolatin1encoding def
    currentdict end
definefont pop
/AvantGarde-Demi-latin1
    /AvantGarde-Demi findfont
    dup length dict begin
	{1 index /FID ne {def} {pop pop} ifelse} forall
	/Encoding isolatin1encoding def
    currentdict end
definefont pop
/AvantGarde-DemiOblique-latin1
    /AvantGarde-DemiOblique findfont
    dup length dict begin
	{1 index /FID ne {def} {pop pop} ifelse} forall
	/Encoding isolatin1encoding def
    currentdict end
definefont pop
/Bookman-Light-latin1
    /Bookman-Light findfont
    dup length dict begin
	{1 index /FID ne {def} {pop pop} ifelse} forall
	/Encoding isolatin1encoding def
    currentdict end
definefont pop
/Bookman-LightItalic-latin1
    /Bookman-LightItalic findfont
    dup length dict begin
	{1 index /FID ne {def} {pop pop} ifelse} forall
	/Encoding isolatin1encoding def
    currentdict end
definefont pop
/Bookman-Demi-latin1
    /Bookman-Demi findfont
    dup length dict begin
	{1 index /FID ne {def} {pop pop} ifelse} forall
	/Encoding isolatin1encoding def
    currentdict end
definefont pop
/Bookman-DemiItalic-latin1
    /Bookman-DemiItalic findfont
    dup length dict begin
	{1 index /FID ne {def} {pop pop} ifelse} forall
	/Encoding isolatin1encoding def
    currentdict end
definefont pop
/Courier-latin1
    /Courier findfont
    dup length dict begin
	{1 index /FID ne {def} {pop pop} ifelse} forall
	/Encoding isolatin1encoding def
    currentdict end
definefont pop
/Courier-Oblique-latin1
    /Courier-Oblique findfont
    dup length dict begin
	{1 index /FID ne {def} {pop pop} ifelse} forall
	/Encoding isolatin1encoding def
    currentdict end
definefont pop
/Courier-Bold-latin1
    /Courier-Bold findfont
    dup length dict begin
	{1 index /FID ne {def} {pop pop} ifelse} forall
	/Encoding isolatin1encoding def
    currentdict end
definefont pop
/Courier-BoldOblique-latin1
    /Courier-BoldOblique findfont
    dup length dict begin
	{1 index /FID ne {def} {pop pop} ifelse} forall
	/Encoding isolatin1encoding def
    currentdict end
definefont pop
/Helvetica-latin1
    /Helvetica findfont
    dup length dict begin
	{1 index /FID ne {def} {pop pop} ifelse} forall
	/Encoding isolatin1encoding def
    currentdict end
definefont pop
/Helvetica-Oblique-latin1
    /Helvetica-Oblique findfont
    dup length dict begin
	{1 index /FID ne {def} {pop pop} ifelse} forall
	/Encoding isolatin1encoding def
    currentdict end
definefont pop
/Helvetica-Bold-latin1
    /Helvetica-Bold findfont
    dup length dict begin
	{1 index /FID ne {def} {pop pop} ifelse} forall
	/Encoding isolatin1encoding def
    currentdict end
definefont pop
/Helvetica-BoldOblique-latin1
    /Helvetica-BoldOblique findfont
    dup length dict begin
	{1 index /FID ne {def} {pop pop} ifelse} forall
	/Encoding isolatin1encoding def
    currentdict end
definefont pop
/Helvetica-Narrow-latin1
    /Helvetica-Narrow findfont
    dup length dict begin
	{1 index /FID ne {def} {pop pop} ifelse} forall
	/Encoding isolatin1encoding def
    currentdict end
definefont pop
/Helvetica-Narrow-Oblique-latin1
    /Helvetica-Narrow-Oblique findfont
    dup length dict begin
	{1 index /FID ne {def} {pop pop} ifelse} forall
	/Encoding isolatin1encoding def
    currentdict end
definefont pop
/Helvetica-Narrow-Bold-latin1
    /Helvetica-Narrow-Bold findfont
    dup length dict begin
	{1 index /FID ne {def} {pop pop} ifelse} forall
	/Encoding isolatin1encoding def
    currentdict end
definefont pop
/Helvetica-Narrow-BoldOblique-latin1
    /Helvetica-Narrow-BoldOblique findfont
    dup length dict begin
	{1 index /FID ne {def} {pop pop} ifelse} forall
	/Encoding isolatin1encoding def
    currentdict end
definefont pop
/NewCenturySchlbk-Roman-latin1
    /NewCenturySchlbk-Roman findfont
    dup length dict begin
	{1 index /FID ne {def} {pop pop} ifelse} forall
	/Encoding isolatin1encoding def
    currentdict end
definefont pop
/NewCenturySchlbk-Italic-latin1
    /NewCenturySchlbk-Italic findfont
    dup length dict begin
	{1 index /FID ne {def} {pop pop} ifelse} forall
	/Encoding isolatin1encoding def
    currentdict end
definefont pop
/NewCenturySchlbk-Bold-latin1
    /NewCenturySchlbk-Bold findfont
    dup length dict begin
	{1 index /FID ne {def} {pop pop} ifelse} forall
	/Encoding isolatin1encoding def
    currentdict end
definefont pop
/NewCenturySchlbk-BoldItalic-latin1
    /NewCenturySchlbk-BoldItalic findfont
    dup length dict begin
	{1 index /FID ne {def} {pop pop} ifelse} forall
	/Encoding isolatin1encoding def
    currentdict end
definefont pop
/Palatino-Roman-latin1
    /Palatino-Roman findfont
    dup length dict begin
	{1 index /FID ne {def} {pop pop} ifelse} forall
	/Encoding isolatin1encoding def
    currentdict end
definefont pop
/Palatino-Italic-latin1
    /Palatino-Italic findfont
    dup length dict begin
	{1 index /FID ne {def} {pop pop} ifelse} forall
	/Encoding isolatin1encoding def
    currentdict end
definefont pop
/Palatino-Bold-latin1
    /Palatino-Bold findfont
    dup length dict begin
	{1 index /FID ne {def} {pop pop} ifelse} forall
	/Encoding isolatin1encoding def
    currentdict end
definefont pop
/Palatino-BoldItalic-latin1
    /Palatino-BoldItalic findfont
    dup length dict begin
	{1 index /FID ne {def} {pop pop} ifelse} forall
	/Encoding isolatin1encoding def
    currentdict end
definefont pop
/Symbol-latin1
    /Symbol findfont
definefont pop
/ZapfChancery-MediumItalic-latin1
    /ZapfChancery-MediumItalic findfont
    dup length dict begin
	{1 index /FID ne {def} {pop pop} ifelse} forall
	/Encoding isolatin1encoding def
    currentdict end
definefont pop
/ZapfDingbats-latin1
    /ZapfDingbats findfont
    dup length dict begin
	{1 index /FID ne {def} {pop pop} ifelse} forall
	/Encoding isolatin1encoding def
    currentdict end
definefont pop
28.346000 -28.346000 scale
2.025000 -18.050268 translate
%%EndProlog


0.050000 slw
[] 0 sd
[] 0 sd
0 slj
0.000000 0.000000 0.000000 srgb
n -2.000000 8.400000 m -2.000000 15.600000 l 7.800000 15.600000 l 7.800000 8.400000 l cp s
/Helvetica-latin1 ff 0.560000 scf sf
1.000000 1.000000 1.000000 srgb
n 2.287500 2.950000 m 2.287500 4.850000 l 6.332500 4.850000 l 6.332500 2.950000 l f
0.100000 slw
[] 0 sd
[] 0 sd
0 slj
0.000000 0.000000 0.000000 srgb
n 2.287500 2.950000 m 2.287500 4.850000 l 6.332500 4.850000 l 6.332500 2.950000 l cp s
(OpenCL) dup sw 2 div 4.310000 ex sub 3.945000 m
 gs 1 -1 sc sh gr
1.000000 1.000000 1.000000 srgb
n 19.080790 2.950000 m 19.080790 4.850000 l 23.125790 4.850000 l 23.125790 2.950000 l f
0.100000 slw
[] 0 sd
[] 0 sd
0 slj
0.000000 0.000000 0.000000 srgb
n 19.080790 2.950000 m 19.080790 4.850000 l 23.125790 4.850000 l 23.125790 2.950000 l cp s
(OpenGL) dup sw 2 div 21.103290 ex sub 3.945000 m
 gs 1 -1 sc sh gr
1.000000 1.000000 1.000000 srgb
n 1.500000 9.000000 m 1.500000 10.800000 l 7.120000 10.800000 l 7.120000 9.000000 l f
0.010000 slw
[] 0 sd
[] 0 sd
0 slj
0.000000 0.000000 0.000000 srgb
n 1.500000 9.000000 m 1.500000 10.800000 l 7.120000 10.800000 l 7.120000 9.000000 l cp s
(doStreaming) dup sw 2 div 4.310000 ex sub 9.945000 m
 gs 1 -1 sc sh gr
1.000000 1.000000 1.000000 srgb
n 1.500000 13.000000 m 1.500000 14.800000 l 7.120000 14.800000 l 7.120000 13.000000 l f
0.010000 slw
[] 0 sd
[] 0 sd
0 slj
0.000000 0.000000 0.000000 srgb
n 1.500000 13.000000 m 1.500000 14.800000 l 7.120000 14.800000 l 7.120000 13.000000 l cp s
(doCollision) dup sw 2 div 4.310000 ex sub 13.945000 m
 gs 1 -1 sc sh gr
0.100000 slw
[1.000000] 0 sd
[1.000000] 0 sd
0 slc
n 4.310000 4.850000 m 4.310000 9.001208 l s
0.100000 slw
[1.000000] 0 sd
[1.000000] 0 sd
0 slc
n 4.310000 10.800000 m 4.310000 13.000000 l s
0.050000 slw
[] 0 sd
[] 0 sd
0 slj
n 14.693290 8.400000 m 14.693290 15.600000 l 24.693290 15.600000 l 24.693290 8.400000 l cp s
0.050000 slw
[] 0 sd
[] 0 sd
0 slc
0 slj
0.050000 slw
0 slc
0 slj
[] 0 sd
1.000000 1.000000 1.000000 srgb
n 0.520000 9.505263 m -2.000000 9.505263 l -2.000000 8.400000 l 0.800000 8.400000 l 0.800000 9.394737 l ef
0.000000 0.000000 0.000000 srgb
n 0.520000 9.505263 m -2.000000 9.505263 l -2.000000 8.400000 l 0.800000 8.400000 l 0.800000 9.394737 l cp s
(LOOP) dup sw 2 div -0.670000 ex sub 8.975000 m
 gs 1 -1 sc sh gr
0.050000 slw
[] 0 sd
[] 0 sd
0 slc
0 slj
0.050000 slw
0 slc
0 slj
[] 0 sd
1.000000 1.000000 1.000000 srgb
n 17.213290 9.505263 m 14.693290 9.505263 l 14.693290 8.400000 l 17.493290 8.400000 l 17.493290 9.394737 l ef
0.000000 0.000000 0.000000 srgb
n 17.213290 9.505263 m 14.693290 9.505263 l 14.693290 8.400000 l 17.493290 8.400000 l 17.493290 9.394737 l cp s
(LOOP) dup sw 2 div 16.023290 ex sub 8.975000 m
 gs 1 -1 sc sh gr
1.000000 1.000000 1.000000 srgb
n 18.293290 9.600000 m 18.293290 13.000000 l 23.913290 13.000000 l 23.913290 9.600000 l f
0.010000 slw
[] 0 sd
[] 0 sd
0 slj
0.000000 0.000000 0.000000 srgb
n 18.293290 9.600000 m 18.293290 13.000000 l 23.913290 13.000000 l 23.913290 9.600000 l cp s
(OpenGL) dup sw 2 div 21.103290 ex sub 10.545000 m
 gs 1 -1 sc sh gr
(operation) dup sw 2 div 21.103290 ex sub 11.345000 m
 gs 1 -1 sc sh gr
(stack) dup sw 2 div 21.103290 ex sub 12.145000 m
 gs 1 -1 sc sh gr
0.100000 slw
[1.000000] 0 sd
[1.000000] 0 sd
0 slc
n 21.103290 4.850000 m 21.103290 9.600000 l s
0.100000 slw
[1.000000] 0 sd
[1.000000] 0 sd
0 slc
n 21.103290 13.000000 m 21.093290 18.000000 l s
0.100000 slw
[1.000000] 0 sd
[1.000000] 0 sd
0 slc
n 4.310000 14.800000 m 4.327200 18.000000 l s
1.000000 1.000000 1.000000 srgb
n 9.500000 8.500000 m 9.500000 10.400000 l 12.947500 10.400000 l 12.947500 8.500000 l f
0.100000 slw
[] 0 sd
[] 0 sd
0 slj
0.000000 0.000000 0.000000 srgb
n 9.500000 8.500000 m 9.500000 10.400000 l 12.947500 10.400000 l 12.947500 8.500000 l cp s
(density) dup sw 2 div 11.223750 ex sub 9.495000 m
 gs 1 -1 sc sh gr
1.000000 1.000000 1.000000 srgb
n 9.500000 11.000000 m 9.500000 12.900000 l 13.105000 12.900000 l 13.105000 11.000000 l f
0.100000 slw
[] 0 sd
[] 0 sd
0 slj
0.000000 0.000000 0.000000 srgb
n 9.500000 11.000000 m 9.500000 12.900000 l 13.105000 12.900000 l 13.105000 11.000000 l cp s
(velocity) dup sw 2 div 11.302500 ex sub 11.995000 m
 gs 1 -1 sc sh gr
0.100000 slw
[] 0 sd
[] 0 sd
0 slc
0 slj
0.100000 slw
0 slc
0 slj
[] 0 sd
n 8.000000 14.000000 m 11.250000 14.000000 l 11.250000 13.500000 l 14.500000 14.500000 l 11.250000 15.500000 l 11.250000 15.000000 l 8.000000 15.000000 l ef
n 8.000000 14.000000 m 11.250000 14.000000 l 11.250000 13.500000 l 14.500000 14.500000 l 11.250000 15.500000 l 11.250000 15.000000 l 8.000000 15.000000 l cp s
0 slc
0 slj
[] 0 sd
n 8.000000 14.000000 m 11.250000 14.000000 l 11.250000 13.500000 l 14.500000 14.500000 l 11.250000 15.500000 l 11.250000 15.000000 l 8.000000 15.000000 l cp s
showpage
